Lab_9/pl/accumulator.vcd
$date
	Mon Dec 26 15:25:57 2022
$end
$version
	Icarus Verilog
$end
$timescale
	1ns
$end
$scope module accumulator_tb $end
$var wire 4 ! acc [3:0] $end
$var reg 1 " clk $end
$var reg 4 # in [3:0] $end
$var reg 1 $ reset $end
$scope module AC $end
$var wire 1 " clk $end
$var wire 4 % in [3:0] $end
$var wire 1 $ reset $end
$var reg 4 & acc [3:0] $end
$upscope $end
$upscope $end
$enddefinitions $end
$comment Show the parameter values. $end
$dumpall
$end
#0
$dumpvars
bx &
bx %
x$
bx #
0"
bx !
$end
#5
b0 !
b0 &
1$
1"
#10
b1 !
b1 &
b1 #
b1 %
0$
0"
#15
b10 !
b10 &
1"
#20
0"
#25
b11 !
b11 &
1"
#30
0"
#35
b100 !
b100 &
1"
#40
0"
#45
b101 !
b101 &
1"
#50
0"
#55
b110 !
b110 &
1"
#60
0"
b10 #
b10 %
#65
b1000 !
b1000 &
1"
#70
0"
#75
b1010 !
b1010 &
1"
#80
0"
#85
b1100 !
b1100 &
1"
#90
0"
#95
b1110 !
b1110 &
1"
#100
0"
#105
b0 !
b0 &
1"
#110
0"
b11 #
b11 %
#115
b11 !
b11 &
1"
#120
0"
#125
b110 !
b110 &
1"
#130
0"
#135
b1001 !
b1001 &
1"
#140
0"
#145
b1100 !
b1100 &
1"
#150
0"
#155
b1111 !
b1111 &
1"
#160
0"
#165
b10 !
b10 &
1"
#170
0"
#175
b101 !
b101 &
1"
#180
0"
#185
b1000 !
b1000 &
1"
#190
0"
#195
b1011 !
b1011 &
1"
